 <svg version="1.0" xmlns="http://www.w3.org/2000/svg" width="700.000000pt" height="700.000000pt" viewBox="0 0 700.000000 700.000000" preserveAspectRatio="xMidYMid meet">
<metadata>
Created by potrace 1.12, written by Peter Selinger 2001-2015
</metadata>
<g transform="translate(0.000000,700.000000) scale(0.100000,-0.100000)" fill="#000000" stroke="none">
<path d="M3092 6987 c-7 -8 -34 -12 -77 -12 -43 1 -69 -3 -77 -12 -6 -7 -31
-13 -59 -13 -26 0 -51 -4 -54 -10 -3 -5 -31 -10 -61 -10 -30 0 -54 -4 -54 -10
0 -5 -17 -10 -38 -10 -21 0 -43 -5 -50 -12 -7 -7 -27 -11 -46 -10 -20 2 -38
-4 -46 -13 -7 -8 -25 -15 -41 -15 -16 0 -29 -4 -29 -10 0 -5 -13 -10 -29 -10
-17 0 -33 -4 -36 -10 -3 -5 -17 -10 -31 -10 -14 0 -32 -7 -40 -15 -9 -8 -24
-15 -34 -15 -11 0 -35 -9 -55 -20 -20 -11 -46 -20 -58 -21 -12 0 -35 -9 -52
-19 -54 -34 -88 -50 -105 -50 -19 0 -117 -48 -126 -61 -3 -5 -13 -9 -22 -9
-10 0 -24 -9 -32 -20 -8 -11 -21 -20 -30 -21 -8 0 -28 -9 -45 -20 -16 -10 -39
-23 -50 -28 -12 -5 -27 -16 -34 -25 -7 -9 -22 -16 -32 -16 -11 0 -19 -4 -19
-10 0 -5 -8 -10 -18 -10 -10 0 -29 -11 -42 -25 -13 -14 -29 -25 -35 -25 -6 0
-26 -16 -45 -35 -19 -19 -39 -35 -45 -35 -7 0 -26 -13 -43 -30 -18 -16 -37
-30 -43 -30 -7 0 -31 -20 -55 -45 -23 -25 -48 -45 -56 -45 -17 0 -438 -421
-438 -439 0 -7 -20 -32 -45 -55 -25 -24 -45 -48 -45 -55 0 -6 -14 -25 -30 -43
-16 -17 -30 -36 -30 -43 0 -6 -16 -26 -35 -45 -19 -19 -35 -39 -35 -45 0 -6
-11 -22 -25 -35 -14 -13 -25 -32 -25 -42 0 -10 -4 -18 -10 -18 -5 0 -10 -8
-10 -19 0 -10 -7 -25 -16 -32 -9 -7 -20 -22 -25 -34 -5 -11 -18 -33 -28 -50
-11 -16 -20 -37 -20 -45 -1 -9 -10 -22 -21 -30 -11 -8 -20 -22 -20 -32 0 -9
-4 -19 -9 -22 -14 -9 -61 -108 -62 -130 0 -12 -9 -34 -19 -51 -35 -55 -50 -88
-50 -106 0 -10 -9 -34 -20 -54 -11 -20 -20 -44 -20 -55 0 -10 -7 -25 -15 -34
-8 -8 -15 -26 -15 -40 0 -14 -4 -28 -10 -31 -5 -3 -10 -19 -10 -36 0 -16 -4
-29 -10 -29 -5 0 -10 -13 -10 -29 0 -16 -7 -34 -15 -41 -9 -7 -15 -29 -15 -51
0 -21 -4 -41 -10 -44 -5 -3 -10 -24 -10 -46 0 -21 -4 -39 -10 -39 -5 0 -10
-24 -10 -54 0 -30 -5 -58 -10 -61 -6 -3 -10 -28 -10 -54 0 -26 -6 -53 -12 -59
-8 -8 -12 -35 -10 -76 3 -47 0 -65 -12 -75 -14 -12 -16 -61 -16 -411 0 -331 2
-400 14 -409 11 -9 13 -29 10 -75 -3 -48 0 -67 11 -76 10 -8 15 -30 15 -61 0
-26 4 -51 10 -54 5 -3 10 -31 10 -61 0 -30 5 -54 10 -54 6 0 10 -18 10 -39 0
-22 4 -43 10 -46 5 -3 10 -23 10 -44 0 -22 6 -44 15 -51 8 -7 15 -25 15 -41 0
-16 5 -29 10 -29 6 0 10 -13 10 -29 0 -17 5 -33 10 -36 6 -3 10 -17 10 -31 0
-14 7 -32 15 -40 8 -9 15 -24 15 -34 0 -11 9 -35 20 -55 11 -20 20 -46 21 -58
0 -12 9 -35 19 -52 34 -54 50 -88 50 -105 0 -19 48 -117 61 -126 5 -3 9 -13 9
-22 0 -10 9 -24 20 -32 11 -8 20 -21 21 -30 0 -8 9 -28 20 -45 10 -16 23 -39
28 -50 5 -12 16 -27 25 -34 9 -7 16 -22 16 -32 0 -11 5 -19 10 -19 6 0 10 -8
10 -18 0 -10 11 -29 25 -42 14 -13 25 -29 25 -35 0 -6 16 -26 35 -45 19 -19
35 -39 35 -45 0 -7 13 -26 30 -43 16 -18 30 -36 30 -42 0 -5 20 -30 45 -54 25
-25 45 -51 45 -58 0 -17 421 -438 439 -438 7 0 32 -20 55 -45 24 -25 48 -45
55 -45 6 0 25 -13 43 -30 17 -16 36 -30 43 -30 6 0 26 -16 45 -35 19 -19 39
-35 45 -35 6 0 22 -11 35 -25 13 -14 32 -25 42 -25 10 0 18 -4 18 -10 0 -5 8
-10 19 -10 10 0 25 -7 32 -16 7 -9 22 -20 34 -25 11 -5 34 -18 50 -28 17 -11
37 -20 45 -20 9 -1 22 -10 30 -21 8 -11 22 -20 32 -20 9 0 19 -4 23 -9 7 -13
64 -41 82 -41 7 0 13 -4 13 -10 0 -5 12 -10 28 -11 15 0 41 -9 57 -19 55 -34
88 -50 105 -50 19 0 77 -27 85 -40 3 -4 13 -6 24 -3 10 2 25 -3 34 -11 8 -9
27 -16 41 -16 14 0 28 -4 31 -10 3 -5 19 -10 36 -10 16 0 29 -4 29 -10 0 -5
13 -10 29 -10 16 0 34 -7 41 -15 8 -9 26 -15 46 -13 19 1 39 -3 46 -10 7 -7
29 -12 50 -12 21 0 38 -4 38 -10 0 -5 24 -10 54 -10 30 0 58 -4 61 -10 3 -5
28 -10 54 -10 29 0 53 -6 60 -14 8 -10 30 -13 75 -10 47 2 68 -1 76 -12 17
-20 801 -21 818 -1 7 8 34 12 76 11 45 -1 70 3 77 12 7 8 31 14 60 14 26 0 51
5 54 10 3 6 31 10 61 10 30 0 54 5 54 10 0 6 16 10 35 10 20 0 47 7 60 16 15
10 34 14 49 10 15 -4 28 0 36 9 7 8 25 15 41 15 16 0 29 5 29 10 0 6 13 10 29
10 17 0 33 4 36 10 3 5 17 10 31 10 14 0 33 7 41 16 9 8 24 13 34 11 11 -3 21
-1 24 3 8 13 66 40 85 40 17 0 50 16 105 50 17 10 42 19 58 19 15 1 27 6 27
11 0 6 6 10 13 10 18 0 75 28 82 41 4 5 14 9 23 9 10 0 24 9 32 20 8 11 21 20
30 21 8 0 29 9 45 20 17 10 39 23 50 28 12 5 27 16 34 25 7 9 22 16 32 16 11
0 19 5 19 10 0 6 8 10 18 10 10 0 29 11 42 25 13 14 29 25 35 25 6 0 26 16 45
35 19 19 39 35 45 35 7 0 26 14 43 30 18 17 37 30 43 30 6 0 31 20 56 45 24
25 50 45 56 45 16 0 437 422 437 438 0 7 20 33 45 58 25 24 45 49 45 54 0 6
14 24 30 42 17 17 30 36 30 43 0 6 16 26 35 45 19 19 35 39 35 45 0 6 11 22
25 35 14 13 25 32 25 42 0 10 5 18 10 18 6 0 10 8 10 19 0 10 7 25 16 32 9 7
20 22 25 34 5 11 18 34 28 50 11 17 20 37 20 45 1 9 10 22 21 30 11 8 20 22
20 32 0 9 4 19 9 22 14 9 61 108 62 130 0 12 9 35 19 51 35 55 50 88 50 106 0
10 9 34 20 54 11 20 20 44 20 55 0 10 7 25 15 34 8 8 15 26 15 40 0 14 4 28
10 31 5 3 10 19 10 36 0 16 5 29 10 29 6 0 10 13 10 28 0 15 5 33 12 40 7 7
13 29 15 49 1 20 7 41 13 47 5 5 10 27 10 48 0 21 5 38 10 38 6 0 10 24 10 54
0 30 4 58 10 61 6 3 10 28 10 54 0 28 6 53 13 59 9 8 13 34 12 77 0 43 4 70
12 77 10 8 13 95 13 403 0 342 -2 396 -16 425 -12 23 -15 46 -11 80 4 36 2 52
-9 60 -8 8 -14 31 -14 61 0 26 -4 51 -10 54 -5 3 -10 31 -10 61 0 30 -4 54
-10 54 -5 0 -10 17 -10 39 0 21 -6 44 -14 50 -10 8 -13 23 -9 45 3 22 0 36
-11 45 -9 7 -16 26 -16 42 0 16 -4 29 -10 29 -5 0 -10 13 -10 29 0 17 -4 33
-10 36 -5 3 -10 17 -10 31 0 14 -7 32 -15 40 -8 9 -15 24 -15 34 0 11 -9 35
-20 55 -11 20 -20 44 -20 54 0 18 -15 51 -50 106 -10 17 -19 39 -19 51 -1 22
-48 121 -62 130 -5 3 -9 13 -9 22 0 10 -9 24 -20 32 -11 8 -20 21 -21 30 0 8
-9 29 -20 45 -10 17 -23 39 -28 50 -5 12 -16 27 -25 34 -9 7 -16 22 -16 32 0
11 -4 19 -10 19 -5 0 -10 8 -10 18 0 10 -11 29 -25 42 -14 13 -25 29 -25 35 0
6 -16 26 -35 45 -19 19 -35 39 -35 46 0 7 -13 25 -30 41 -16 15 -30 34 -30 42
0 8 -20 33 -45 57 -25 23 -45 48 -45 56 0 15 -423 441 -431 434 -3 -3 -29 17
-58 44 -29 28 -57 50 -62 50 -5 0 -23 14 -41 30 -17 17 -36 30 -43 30 -6 0
-26 16 -45 35 -19 19 -39 35 -45 35 -6 0 -22 11 -35 25 -13 14 -32 25 -42 25
-10 0 -18 5 -18 10 0 6 -8 10 -19 10 -10 0 -25 7 -32 16 -7 9 -22 20 -34 25
-11 5 -33 18 -50 28 -16 11 -37 20 -45 20 -9 1 -22 10 -30 21 -8 11 -22 20
-32 20 -9 0 -19 4 -23 9 -7 13 -64 41 -82 41 -7 0 -13 5 -13 10 0 6 -12 10
-27 11 -16 0 -41 9 -58 19 -55 35 -88 50 -106 50 -10 0 -34 9 -54 20 -20 11
-44 20 -55 20 -10 0 -25 7 -34 15 -8 8 -26 15 -40 15 -14 0 -28 5 -31 10 -3 6
-19 10 -36 10 -16 0 -29 5 -29 10 0 6 -13 10 -29 10 -16 0 -35 7 -42 16 -9 11
-23 14 -45 11 -22 -4 -37 -1 -45 9 -6 8 -29 14 -50 14 -22 0 -39 5 -39 10 0 6
-24 10 -54 10 -30 0 -58 5 -61 10 -3 6 -28 10 -54 10 -29 0 -53 6 -60 14 -8
10 -30 13 -76 11 -46 -3 -67 0 -76 11 -16 20 -801 21 -817 1z m613 -247 c4 -6
53 -10 116 -10 66 0 109 -4 109 -10 0 -6 28 -10 64 -10 36 0 68 -4 71 -10 3
-5 28 -10 54 -10 31 0 53 -5 61 -15 8 -10 30 -15 61 -15 26 0 51 -4 54 -10 3
-5 19 -10 36 -10 16 0 29 -4 29 -10 0 -5 18 -10 39 -10 22 0 43 -4 46 -10 3
-5 20 -10 36 -10 17 0 32 -6 35 -15 4 -8 19 -15 34 -15 16 0 32 -4 35 -10 3
-5 19 -10 35 -10 16 0 32 -4 35 -10 3 -5 13 -10 22 -10 22 0 93 -32 93 -42 0
-4 9 -8 20 -8 11 0 20 -4 20 -10 0 -5 9 -10 19 -10 11 0 23 -4 26 -10 3 -5 19
-10 36 -10 16 0 29 -4 29 -8 0 -5 22 -18 48 -29 26 -12 54 -28 61 -37 8 -9 19
-16 26 -16 7 0 18 -7 25 -15 7 -8 21 -15 31 -15 11 0 19 -4 19 -10 0 -5 8 -10
18 -10 11 0 27 -9 37 -20 10 -11 23 -20 30 -20 6 0 22 -11 35 -25 13 -14 31
-25 39 -25 9 0 22 -9 29 -20 7 -11 21 -20 31 -20 10 0 27 -11 37 -25 10 -14
26 -25 34 -25 9 0 36 -20 60 -45 24 -25 49 -45 55 -45 6 0 35 -25 65 -55 30
-30 62 -55 71 -55 11 0 19 -9 21 -22 2 -13 11 -24 20 -26 20 -4 208 -190 208
-207 0 -6 29 -40 65 -75 36 -35 65 -69 65 -75 0 -6 16 -26 35 -45 19 -19 35
-41 35 -50 0 -8 11 -24 25 -34 14 -10 25 -27 25 -37 0 -11 4 -19 9 -19 5 0 16
-15 24 -33 9 -18 25 -41 37 -52 11 -10 20 -23 20 -30 0 -7 9 -20 20 -30 11
-10 20 -26 20 -37 0 -10 5 -18 10 -18 6 0 10 -8 10 -19 0 -10 7 -24 15 -31 8
-7 15 -18 15 -25 0 -7 6 -18 14 -24 22 -18 57 -91 50 -102 -3 -6 0 -18 8 -27
21 -27 38 -61 38 -77 0 -8 5 -15 10 -15 6 0 10 -9 10 -20 0 -11 4 -20 8 -20
10 0 42 -71 42 -93 0 -9 5 -19 10 -22 6 -3 10 -16 10 -29 0 -25 25 -82 41 -91
5 -4 9 -24 9 -45 0 -21 5 -42 10 -45 6 -3 10 -24 10 -46 0 -21 5 -39 10 -39 6
0 10 -13 10 -29 0 -17 5 -33 10 -36 6 -3 10 -28 10 -54 0 -31 5 -53 15 -61 10
-8 15 -30 15 -61 0 -26 5 -51 10 -54 6 -3 10 -35 10 -71 0 -36 4 -64 10 -64 6
0 10 -55 10 -145 0 -90 4 -145 10 -145 6 0 10 -68 10 -185 0 -117 -4 -185 -10
-185 -6 0 -10 -40 -10 -100 0 -60 -4 -100 -10 -100 -6 0 -10 -31 -10 -74 0
-41 -4 -78 -10 -81 -5 -3 -10 -23 -10 -44 0 -22 -6 -44 -15 -51 -9 -7 -15 -29
-15 -51 0 -22 -4 -39 -10 -39 -5 0 -10 -20 -10 -45 0 -25 -4 -45 -10 -45 -5 0
-10 -18 -10 -39 0 -22 -4 -43 -10 -46 -5 -3 -10 -16 -10 -29 0 -12 -7 -31 -15
-42 -8 -10 -15 -29 -15 -41 0 -12 -4 -25 -10 -28 -5 -3 -10 -15 -10 -26 0 -10
-4 -19 -10 -19 -5 0 -10 -13 -10 -29 0 -17 -4 -33 -10 -36 -6 -3 -10 -17 -10
-30 0 -13 -7 -30 -15 -39 -8 -8 -15 -19 -15 -23 0 -14 -51 -112 -61 -119 -5
-3 -9 -18 -9 -33 0 -16 -7 -34 -15 -41 -9 -7 -25 -33 -35 -56 -11 -24 -24 -46
-30 -49 -5 -3 -10 -15 -10 -26 0 -10 -4 -19 -10 -19 -5 0 -10 -8 -10 -17 0 -9
-7 -25 -17 -35 -17 -19 -36 -49 -52 -83 -5 -12 -16 -27 -25 -34 -9 -7 -16 -22
-16 -32 0 -11 -9 -19 -22 -21 -15 -2 -24 -11 -26 -25 -2 -13 -8 -23 -13 -23
-5 0 -9 -8 -9 -18 0 -10 -16 -33 -35 -52 -19 -19 -35 -39 -35 -45 0 -6 -25
-35 -55 -65 -30 -30 -55 -60 -55 -66 0 -15 -260 -274 -275 -274 -6 0 -35 -25
-65 -55 -30 -30 -59 -55 -65 -55 -6 0 -26 -16 -45 -35 -19 -19 -41 -35 -49
-35 -9 0 -29 -16 -46 -35 -16 -19 -37 -35 -45 -35 -9 0 -22 -9 -30 -20 -8 -11
-22 -20 -31 -20 -9 0 -24 -9 -34 -20 -19 -21 -71 -50 -89 -50 -7 0 -18 -9 -26
-20 -8 -11 -22 -20 -31 -20 -9 0 -22 -7 -29 -15 -7 -8 -18 -15 -25 -15 -6 0
-20 -9 -30 -20 -10 -11 -29 -20 -43 -20 -14 0 -35 -11 -48 -25 -13 -14 -34
-25 -48 -25 -14 0 -28 -5 -31 -10 -3 -6 -15 -10 -26 -10 -10 0 -19 -4 -19 -10
0 -5 -13 -10 -28 -10 -17 0 -38 -10 -52 -25 -13 -14 -34 -25 -46 -25 -13 0
-26 -4 -29 -10 -3 -5 -15 -10 -26 -10 -10 0 -19 -4 -19 -10 0 -5 -20 -10 -44
-10 -30 0 -46 -5 -50 -15 -3 -9 -18 -15 -35 -15 -16 0 -33 -4 -36 -10 -3 -5
-24 -10 -46 -10 -21 0 -39 -4 -39 -10 0 -5 -20 -10 -45 -10 -25 0 -45 -4 -45
-10 0 -5 -17 -10 -39 -10 -22 0 -44 -6 -51 -15 -8 -10 -30 -15 -61 -15 -26 0
-51 -4 -54 -10 -3 -5 -44 -10 -90 -10 -46 0 -87 -4 -90 -10 -3 -5 -44 -10 -90
-10 -46 0 -87 -4 -90 -10 -4 -6 -77 -10 -186 -10 -113 0 -179 4 -179 10 0 6
-52 10 -135 10 -83 0 -135 4 -135 10 0 6 -28 10 -64 10 -36 0 -68 5 -71 10 -3
6 -32 10 -64 10 -40 0 -63 5 -71 15 -7 9 -29 15 -51 15 -21 0 -41 5 -44 10 -3
6 -19 10 -36 10 -16 0 -29 5 -29 10 0 6 -18 10 -39 10 -22 0 -43 5 -46 10 -3
6 -20 10 -36 10 -17 0 -32 6 -35 15 -4 8 -19 15 -34 15 -16 0 -32 5 -35 10 -3
6 -16 10 -29 10 -24 0 -82 25 -91 40 -3 4 -13 6 -24 3 -10 -2 -25 3 -34 11 -8
9 -23 16 -31 16 -9 0 -16 5 -16 10 0 6 -9 10 -19 10 -11 0 -23 5 -26 10 -3 6
-19 10 -36 10 -16 0 -29 4 -29 10 0 5 -11 12 -24 16 -14 3 -32 14 -42 25 -9
10 -28 19 -42 19 -14 0 -32 10 -44 25 -11 14 -28 25 -39 25 -10 0 -19 5 -19
10 0 6 -8 10 -19 10 -10 0 -25 7 -32 16 -7 9 -22 20 -34 25 -39 19 -67 37 -94
63 -15 14 -34 26 -43 26 -8 0 -24 11 -34 25 -10 14 -26 25 -34 25 -9 0 -36 20
-60 45 -24 25 -49 45 -55 45 -6 0 -35 25 -65 55 -30 30 -59 55 -66 55 -16 0
-182 169 -186 189 -2 9 -8 16 -13 16 -20 1 -55 30 -55 45 0 9 -20 36 -45 60
-25 24 -45 49 -45 55 0 6 -25 35 -55 65 -30 30 -55 60 -55 68 0 7 -16 28 -35
46 -19 19 -35 38 -35 43 0 18 -29 69 -50 88 -11 10 -20 23 -20 30 0 7 -9 20
-20 30 -11 10 -20 26 -20 37 0 10 -4 18 -10 18 -5 0 -10 8 -10 18 0 10 -11 29
-25 42 -14 13 -25 34 -25 46 0 13 -4 26 -10 29 -5 3 -10 15 -10 26 0 10 -4 19
-10 19 -5 0 -10 9 -10 19 0 11 -4 22 -9 26 -13 7 -41 64 -41 82 0 7 -4 13 -10
13 -5 0 -10 7 -10 16 0 8 -7 22 -15 30 -8 9 -15 26 -15 39 0 13 -4 27 -10 30
-5 3 -10 19 -10 36 0 16 -4 29 -10 29 -5 0 -10 9 -10 19 0 11 -5 23 -10 26 -6
3 -10 19 -10 35 0 15 -7 30 -15 34 -9 3 -15 18 -15 35 0 16 -4 33 -10 36 -5 3
-10 19 -10 36 0 16 -4 29 -10 29 -5 0 -10 25 -10 55 0 30 -4 55 -10 55 -5 0
-10 17 -10 39 0 22 -6 44 -15 51 -9 7 -15 29 -15 51 0 21 -4 41 -10 44 -5 3
-10 40 -10 81 0 43 -4 74 -10 74 -6 0 -10 52 -10 135 0 83 -4 135 -10 135 -6
0 -10 60 -10 160 0 100 4 160 10 160 6 0 10 52 10 135 0 83 4 135 10 135 6 0
10 31 10 74 0 41 5 78 10 81 6 3 10 23 10 44 0 22 6 44 15 51 10 8 15 30 15
61 0 26 5 51 10 54 6 3 10 24 10 46 0 21 5 39 10 39 6 0 10 13 10 29 0 17 5
33 10 36 6 3 10 16 10 29 0 12 7 31 15 42 8 10 15 29 15 41 0 12 5 25 10 28 6
3 10 19 10 35 0 16 5 32 10 35 6 3 10 13 10 22 0 22 32 93 42 93 4 0 8 9 8 20
0 11 5 20 10 20 6 0 10 13 10 28 0 17 10 38 25 52 14 13 25 32 25 42 0 10 5
18 10 18 6 0 10 13 10 28 0 16 9 37 20 47 11 10 20 24 20 30 0 7 7 18 15 25 8
7 15 21 15 31 0 11 5 19 10 19 6 0 10 8 10 18 0 11 9 27 20 37 11 10 20 23 20
30 0 7 9 20 20 30 21 19 50 70 50 88 0 5 16 24 35 43 19 18 35 39 35 46 0 8
16 29 35 48 19 19 35 39 35 45 0 6 25 35 55 65 30 30 55 59 55 65 0 16 261
275 277 275 7 0 13 7 13 15 0 9 10 19 23 24 12 5 40 28 62 50 21 23 44 41 50
41 6 0 22 11 35 25 13 14 31 25 39 25 9 0 29 16 46 35 16 19 38 35 47 35 10 0
23 9 30 20 7 11 20 20 29 20 8 0 26 11 39 25 13 14 29 25 35 25 7 0 20 9 30
20 10 11 25 20 33 20 8 0 25 11 38 25 13 14 32 25 44 25 22 0 53 15 85 41 11
9 30 20 43 24 12 3 22 11 22 16 0 5 13 9 29 9 17 0 33 5 36 10 3 6 15 10 26
10 10 0 19 5 19 10 0 6 9 10 20 10 11 0 20 4 20 8 0 10 71 42 93 42 9 0 19 5
22 10 3 6 24 10 45 10 21 0 42 5 45 10 3 6 14 10 25 10 10 0 20 7 24 15 3 9
18 15 35 15 16 0 33 5 36 10 3 6 19 10 36 10 16 0 29 5 29 10 0 6 18 10 39 10
22 0 43 5 46 10 3 6 23 10 44 10 22 0 44 6 51 15 8 10 30 15 61 15 26 0 51 5
54 10 3 6 40 10 81 10 43 0 74 4 74 10 0 6 52 10 135 10 83 0 135 4 135 10 0
6 66 10 179 10 109 0 182 -4 186 -10z"></path>
<path d="M2132 5445 c-13 -7 -34 -34 -48 -60 -20 -40 -24 -63 -24 -132 0 -49
4 -83 10 -83 6 0 10 -18 10 -39 0 -22 5 -43 10 -46 6 -3 10 -24 10 -45 0 -21
5 -42 10 -45 6 -3 10 -17 10 -30 0 -13 7 -30 15 -39 8 -8 15 -26 15 -40 0 -14
5 -28 10 -31 6 -3 10 -15 10 -26 0 -10 5 -19 10 -19 6 0 10 -9 10 -20 0 -11 5
-20 10 -20 6 0 10 -8 10 -19 0 -10 7 -24 15 -31 8 -7 15 -25 15 -41 0 -16 5
-29 10 -29 6 0 10 -9 10 -20 0 -11 5 -20 10 -20 6 0 10 -13 10 -28 0 -17 10
-38 25 -52 14 -13 25 -32 25 -42 0 -10 5 -18 10 -18 6 0 10 -9 10 -20 0 -11 5
-20 10 -20 6 0 10 -9 10 -19 0 -11 4 -22 9 -26 13 -7 41 -64 41 -82 0 -7 5
-13 10 -13 6 0 10 -8 10 -18 0 -11 9 -27 20 -37 20 -18 70 -110 70 -130 0 -5
11 -19 25 -29 14 -10 25 -27 25 -37 0 -10 9 -24 20 -31 12 -8 20 -24 20 -39 0
-14 11 -36 25 -49 14 -13 25 -32 25 -42 0 -10 5 -18 10 -18 6 0 10 -8 10 -18
0 -11 9 -27 20 -37 11 -10 20 -23 20 -30 0 -7 9 -20 20 -30 21 -19 50 -70 50
-88 0 -5 16 -24 35 -43 19 -18 35 -37 35 -42 0 -19 31 -69 60 -97 16 -16 30
-37 30 -47 0 -10 5 -18 10 -18 6 0 10 -7 10 -15 0 -8 8 -24 17 -35 16 -19 29
-20 198 -20 169 0 182 1 198 20 9 11 17 27 17 35 0 8 5 15 10 15 6 0 10 8 10
18 0 10 11 29 25 42 14 13 25 29 25 35 0 7 9 20 20 30 33 30 27 84 -15 125
-19 19 -35 39 -35 45 0 6 -13 24 -30 40 -16 16 -30 34 -30 39 0 6 -11 23 -25
38 -14 15 -25 32 -25 39 0 7 -16 27 -35 46 -19 19 -35 40 -35 47 0 7 -9 21
-20 31 -11 10 -20 23 -20 30 0 6 -16 26 -35 45 -19 19 -35 42 -35 52 0 10 -4
18 -9 18 -5 0 -11 10 -13 23 -2 14 -11 23 -25 25 -15 2 -23 10 -23 23 0 10 -4
19 -10 19 -5 0 -10 8 -10 18 0 10 -16 33 -35 52 -19 19 -35 39 -35 45 0 7 -9
20 -20 30 -11 10 -20 23 -20 29 0 6 -11 23 -25 38 -14 15 -25 33 -25 41 0 8
-9 22 -20 32 -11 10 -20 23 -20 30 0 7 -9 20 -20 30 -20 18 -50 70 -50 87 0 5
-16 24 -35 42 -19 19 -35 40 -35 48 0 8 -9 23 -20 33 -11 10 -20 23 -20 30 0
6 -11 22 -25 35 -14 13 -25 29 -25 35 0 6 -16 26 -35 45 -19 19 -35 42 -35 52
0 10 -4 18 -10 18 -5 0 -10 8 -10 18 0 10 -16 33 -35 52 -19 19 -35 39 -35 45
0 7 -9 20 -20 30 -11 10 -20 23 -20 30 0 6 -11 22 -25 35 -14 13 -25 32 -25
42 0 10 -4 18 -10 18 -5 0 -10 8 -10 18 0 10 -16 33 -35 52 -19 19 -35 39 -35
46 0 6 -7 18 -16 25 -9 7 -20 23 -25 36 -7 20 -15 23 -56 22 -27 -1 -58 -7
-71 -14z"></path>
<path d="M4567 5432 c-15 -15 -27 -33 -27 -38 0 -6 -16 -25 -35 -44 -19 -19
-35 -41 -35 -50 0 -8 -9 -22 -20 -30 -11 -8 -20 -22 -20 -31 0 -8 -20 -33 -45
-55 -24 -21 -45 -46 -45 -55 0 -8 -11 -26 -25 -39 -14 -13 -25 -29 -25 -35 0
-6 -16 -26 -35 -45 -19 -19 -35 -40 -35 -48 0 -8 -13 -27 -30 -42 -16 -15 -30
-35 -30 -43 0 -9 -11 -24 -25 -35 -14 -11 -25 -26 -25 -34 0 -8 -9 -23 -20
-33 -11 -10 -20 -23 -20 -30 0 -6 -11 -22 -25 -35 -14 -13 -25 -32 -25 -42 0
-10 -4 -18 -10 -18 -5 0 -10 -8 -10 -18 0 -11 -9 -27 -21 -38 -11 -10 -29 -37
-39 -60 -11 -22 -26 -46 -34 -53 -8 -6 -17 -23 -20 -36 -4 -14 -11 -25 -16
-25 -6 0 -10 -13 -10 -29 0 -17 -4 -33 -10 -36 -5 -3 -10 -24 -10 -45 0 -21
-4 -42 -10 -45 -5 -3 -10 -42 -10 -85 0 -61 5 -88 20 -115 26 -46 26 -102 1
-124 -19 -16 -52 -67 -70 -106 -5 -11 -21 -31 -35 -44 -14 -14 -26 -29 -26
-35 0 -6 -11 -23 -25 -38 -14 -15 -25 -33 -25 -41 0 -7 -11 -24 -25 -37 -13
-12 -22 -26 -20 -30 3 -4 -2 -13 -10 -20 -8 -7 -15 -18 -15 -24 0 -7 -16 -27
-35 -46 -19 -19 -35 -42 -35 -52 0 -10 -4 -18 -10 -18 -5 0 -10 -8 -10 -18 0
-11 -9 -27 -20 -37 -11 -10 -20 -23 -20 -30 0 -6 -16 -26 -35 -45 -19 -19 -35
-39 -35 -45 0 -6 -11 -22 -25 -35 -14 -13 -25 -31 -25 -40 0 -8 -9 -22 -20
-30 -11 -8 -20 -22 -20 -31 0 -9 -9 -24 -21 -35 -11 -10 -29 -37 -39 -59 -10
-22 -32 -53 -49 -69 -17 -17 -31 -38 -31 -48 0 -10 -4 -18 -10 -18 -5 0 -10
-8 -10 -18 0 -10 -14 -31 -30 -47 -29 -28 -60 -78 -60 -97 0 -5 -16 -22 -35
-39 -19 -17 -35 -39 -35 -48 0 -9 -9 -23 -20 -31 -11 -8 -20 -22 -20 -31 0 -9
-9 -24 -20 -34 -20 -18 -50 -70 -50 -87 0 -5 -16 -22 -35 -39 -19 -17 -35 -40
-35 -50 0 -10 -4 -19 -10 -19 -5 0 -10 -8 -10 -18 0 -10 -14 -31 -30 -47 -29
-28 -60 -78 -60 -97 0 -5 -16 -22 -35 -39 -19 -17 -35 -40 -35 -50 0 -10 -4
-19 -9 -19 -5 0 -16 -15 -25 -34 -8 -18 -22 -39 -31 -46 -15 -12 -45 -66 -45
-81 0 -4 -16 -23 -35 -42 -19 -19 -35 -41 -35 -51 0 -9 -4 -16 -10 -16 -5 0
-10 -7 -10 -15 0 -8 -5 -24 -12 -35 -10 -16 -8 -26 10 -60 12 -23 22 -46 22
-51 0 -19 83 -89 106 -89 12 0 26 -4 29 -10 3 -5 32 -10 63 -10 47 0 60 4 84
27 15 15 28 32 28 38 0 7 9 20 20 30 20 18 50 70 50 86 0 5 9 20 21 33 22 25
69 113 69 129 0 5 11 18 25 29 14 11 25 28 25 39 0 10 5 19 10 19 6 0 10 6 10
13 0 19 28 73 45 87 17 14 45 68 45 87 0 7 5 13 10 13 6 0 10 8 10 18 0 11 9
27 20 37 21 19 50 71 50 89 0 7 9 18 20 26 11 8 20 22 20 31 0 9 7 22 15 29 8
7 15 18 15 25 0 7 7 18 15 25 9 7 24 32 35 54 10 23 28 51 39 63 12 12 21 33
21 46 0 13 9 32 20 42 21 19 50 71 50 89 0 7 9 18 20 26 11 8 20 22 20 31 0 9
7 22 15 29 8 7 15 18 15 25 0 7 7 18 15 25 15 13 45 67 45 82 0 5 11 19 25 32
14 13 25 28 25 33 0 18 51 110 70 128 11 10 20 26 20 37 0 10 5 18 10 18 6 0
10 6 10 13 0 19 28 73 45 87 16 13 45 67 45 83 0 5 11 20 25 33 14 13 25 28
25 33 0 6 9 26 20 46 11 20 20 40 20 46 0 6 11 20 25 31 14 11 25 28 25 39 0
10 5 19 10 19 6 0 10 8 10 18 0 11 9 27 20 37 11 10 20 24 20 30 0 7 7 18 15
25 8 7 15 21 15 31 0 11 5 19 10 19 6 0 10 7 10 15 0 9 9 26 20 38 17 18 24
19 38 9 32 -23 44 -25 54 -9 6 11 22 17 47 17 25 0 44 7 56 20 10 11 25 20 34
20 9 0 25 11 35 25 10 14 26 25 36 25 19 0 60 40 60 60 0 7 20 32 45 56 25 23
45 49 45 57 0 8 7 20 15 27 8 7 15 18 15 25 0 6 9 20 20 30 11 10 20 25 20 33
0 8 11 23 25 34 14 11 25 28 25 39 0 10 5 19 10 19 6 0 10 8 10 18 0 11 9 27
20 37 11 10 20 24 20 30 0 7 7 18 15 25 8 7 15 20 15 29 0 9 9 23 20 31 11 8
20 22 20 31 0 9 7 22 15 29 8 7 15 22 15 35 0 12 9 30 20 40 11 10 20 26 20
37 0 10 5 18 10 18 6 0 10 9 10 19 0 11 4 22 9 25 12 8 61 106 61 123 0 7 5
13 10 13 6 0 10 9 10 19 0 11 4 22 9 25 12 8 61 106 61 123 0 7 5 13 10 13 6
0 10 9 10 20 0 11 -2 20 -5 20 -9 0 -55 -48 -55 -58 0 -17 -30 -69 -50 -87
-11 -10 -20 -25 -20 -34 0 -9 -9 -23 -20 -31 -11 -8 -20 -22 -20 -31 0 -10
-11 -26 -25 -37 -14 -11 -25 -24 -25 -29 0 -18 -30 -69 -50 -88 -11 -10 -20
-25 -20 -34 0 -9 -9 -23 -20 -31 -11 -8 -20 -22 -20 -30 0 -9 -11 -27 -25 -40
-14 -13 -25 -29 -25 -35 0 -7 -9 -20 -20 -30 -11 -10 -20 -23 -20 -30 0 -6
-11 -22 -25 -35 -14 -13 -25 -32 -25 -42 0 -10 -4 -18 -10 -18 -5 0 -10 -8
-10 -18 0 -11 -9 -27 -20 -37 -11 -10 -20 -23 -20 -29 0 -19 -87 -99 -94 -87
-4 6 -16 11 -27 11 -15 0 -19 7 -19 34 0 19 5 38 10 41 6 3 10 15 10 26 0 10
5 19 10 19 6 0 10 6 10 13 0 19 28 73 45 87 16 14 45 67 45 84 0 6 11 20 25
30 14 10 25 27 25 37 0 11 5 19 10 19 6 0 10 8 10 18 0 11 9 27 20 37 11 10
20 24 20 30 0 7 7 18 15 25 8 7 15 20 15 29 0 9 9 23 20 31 11 8 20 21 21 30
0 8 9 29 20 45 10 17 23 39 28 50 5 12 16 27 25 34 9 7 16 22 16 32 0 11 4 19
8 19 11 0 46 80 38 87 -9 10 -66 -48 -66 -67 0 -8 -9 -22 -20 -30 -11 -8 -20
-19 -20 -26 0 -21 -29 -70 -60 -99 -16 -16 -30 -35 -30 -43 0 -8 -11 -23 -25
-34 -14 -11 -25 -27 -25 -37 0 -9 -9 -23 -20 -31 -11 -8 -20 -19 -20 -26 0
-21 -29 -70 -60 -99 -16 -16 -30 -35 -30 -43 0 -8 -11 -23 -25 -34 -14 -11
-25 -28 -25 -39 0 -10 -4 -19 -10 -19 -5 0 -10 -8 -10 -18 0 -19 -98 -122
-116 -122 -32 0 -60 79 -34 95 6 3 10 15 10 26 0 10 5 19 10 19 6 0 10 8 10
18 0 11 9 27 20 37 20 19 50 70 50 88 0 5 11 18 25 29 14 11 25 28 25 39 0 10
5 19 10 19 6 0 10 6 10 13 0 19 28 73 45 87 16 14 45 67 45 84 0 7 9 18 20 26
11 8 20 22 20 31 0 9 9 24 20 34 22 20 50 71 50 92 0 7 4 13 9 13 5 0 12 11
15 25 4 14 11 25 16 25 6 0 10 8 10 19 0 10 6 24 14 30 19 16 59 92 52 99 -8
7 -46 -28 -46 -43 0 -7 -9 -20 -20 -30 -11 -10 -20 -26 -20 -37 0 -10 -4 -18
-10 -18 -5 0 -10 -7 -10 -15 0 -8 -16 -32 -35 -54 -19 -21 -35 -43 -35 -48 0
-6 -9 -18 -20 -28 -21 -19 -50 -71 -50 -89 0 -7 -9 -18 -20 -26 -11 -8 -20
-22 -20 -30 0 -9 -11 -27 -25 -40 -14 -13 -25 -29 -25 -35 0 -6 -11 -22 -25
-35 -14 -13 -25 -29 -25 -35 0 -7 -9 -20 -20 -30 -11 -10 -20 -25 -20 -33 0
-8 -16 -29 -35 -48 -19 -18 -35 -38 -35 -43 0 -29 -92 -141 -116 -141 -21 0
-44 37 -44 73 0 25 8 44 25 61 14 14 25 32 25 41 0 8 5 15 10 15 6 0 10 8 10
19 0 10 7 25 16 32 9 7 20 22 25 34 17 38 51 89 70 106 10 9 19 27 19 41 0 13
11 35 25 48 14 13 25 29 25 35 0 7 9 20 20 30 11 10 20 24 20 30 0 7 7 18 15
25 8 7 15 21 15 31 0 11 5 19 10 19 6 0 10 8 10 18 0 11 9 27 20 37 11 10 20
24 20 30 0 7 7 18 15 25 8 7 15 20 15 29 0 9 9 23 20 31 11 8 20 22 20 30 0 9
11 27 25 40 14 13 25 29 25 36 0 6 7 17 15 24 19 16 48 76 43 90 -2 6 -16 -2
-31 -18z"></path>
<path d="M4720 5330 c0 -11 5 -20 10 -20 6 0 10 9 10 20 0 11 -4 20 -10 20 -5
0 -10 -9 -10 -20z"></path>
<path d="M4880 5240 c0 -24 6 -25 26 -6 19 20 18 26 -6 26 -13 0 -20 -7 -20
-20z"></path>
<path d="M4849 5193 c-23 -28 -43 -72 -36 -79 9 -9 37 15 37 31 0 7 7 18 15
25 16 13 20 40 7 40 -5 0 -15 -8 -23 -17z"></path>
<path d="M5040 5150 c0 -19 3 -21 12 -12 9 9 9 15 0 24 -9 9 -12 7 -12 -12z"></path>
<path d="M3758 3223 c-16 -16 -28 -34 -28 -39 0 -6 -11 -21 -25 -34 -14 -13
-25 -32 -25 -42 0 -10 -4 -18 -10 -18 -5 0 -10 -9 -10 -20 0 -11 -4 -20 -10
-20 -5 0 -10 -8 -10 -17 0 -9 -9 -26 -20 -38 -17 -18 -19 -26 -9 -53 6 -18 15
-32 20 -32 5 0 9 -8 9 -18 0 -11 9 -27 20 -37 11 -10 20 -23 20 -30 0 -7 9
-20 20 -30 20 -18 50 -70 50 -87 0 -5 11 -20 25 -34 14 -14 25 -31 25 -38 0
-8 7 -19 15 -26 9 -7 24 -32 35 -54 10 -23 28 -50 39 -60 12 -11 21 -26 21
-35 0 -9 9 -23 20 -31 11 -8 20 -22 20 -31 0 -9 7 -22 15 -29 8 -7 15 -18 15
-25 0 -6 9 -20 20 -30 11 -10 20 -25 20 -33 0 -8 11 -23 25 -34 14 -11 25 -27
25 -37 0 -9 9 -23 20 -31 11 -8 20 -19 20 -26 0 -18 29 -70 50 -89 11 -10 20
-25 20 -34 0 -9 9 -23 20 -31 11 -8 20 -23 20 -33 0 -9 7 -20 15 -23 8 -4 15
-14 15 -24 0 -10 7 -23 15 -30 9 -7 24 -32 35 -54 10 -23 28 -51 39 -63 12
-12 21 -27 21 -33 0 -6 9 -21 21 -33 11 -12 28 -39 37 -59 9 -21 22 -38 28
-38 6 0 17 -7 24 -15 7 -8 21 -15 31 -15 11 0 19 -4 19 -10 0 -5 9 -10 20 -10
11 0 20 5 20 10 0 6 17 10 39 10 22 0 44 6 51 15 7 8 18 15 26 15 18 0 115
100 108 112 -3 5 1 20 10 33 9 13 16 31 16 38 0 24 -28 71 -60 102 -16 16 -30
35 -30 42 0 7 -16 29 -35 47 -19 19 -35 41 -35 48 0 8 -11 25 -25 38 -14 13
-25 29 -25 35 0 7 -9 20 -20 30 -11 10 -20 23 -20 30 0 6 -16 26 -35 45 -19
19 -35 40 -35 47 0 8 -16 29 -35 49 -19 19 -35 40 -35 47 0 8 -13 26 -30 42
-16 16 -30 34 -30 40 0 6 -11 22 -25 35 -14 13 -25 29 -25 35 0 7 -9 20 -20
30 -11 10 -20 24 -20 31 0 7 -16 29 -35 48 -19 20 -35 41 -35 49 0 7 -16 28
-35 47 -19 19 -35 39 -35 45 0 6 -14 24 -30 40 -30 28 -60 78 -60 97 0 5 -16
25 -35 44 -19 18 -35 40 -35 47 0 7 -16 28 -35 47 -19 19 -35 39 -35 45 0 7
-9 20 -20 30 -11 10 -20 24 -20 32 0 7 -15 27 -34 44 -19 16 -36 39 -38 50 -3
19 -5 19 -30 -8z"></path>
</g>
</svg>